<svg width="20" height="16" viewBox="0 0 20 16" fill="none" xmlns="http://www.w3.org/2000/svg">
<path d="M6.53223 0.240629C6.8047 -0.0802095 7.25818 -0.0802095 7.54017 0.240629C7.81264 0.550628 7.81264 1.06657 7.54017 1.37585L2.42934 7.19068H19.2944C19.6875 7.1914 20 7.54692 20 7.99422C20 8.44151 19.6875 8.8086 19.2944 8.8086H2.42934L7.54017 14.6126C7.81264 14.9334 7.81264 15.4501 7.54017 15.7594C7.25818 16.0802 6.80406 16.0802 6.53223 15.7594L0.211496 8.56797C-0.0704975 8.25797 -0.0704975 7.74203 0.211496 7.43275L6.53223 0.240629Z" fill="white"/>
</svg>
